FPGA/DE2_115_sopcbuilder_12/sensor/test/transcript
# vsim -do {run -all; exit;} -c work.connected_tb 
# Loading work.connected_tb
# Loading work.connected
# Loading work.fifo_conn
# Loading work.register1
# Loading work.fifo_prg
# Loading work.ff_ram
# Loading work.register3
# Loading work.ram_bank
# Loading work.ram_banks
# ** Warning: (vsim-WLF-5000) WLF file currently in use: vsim.wlf
#           File in use by:   Hostname:   ProcessID: 1
#           Attempting to use alternate WLF file "./wlft5102yf".
# ** Warning: (vsim-WLF-5001) Could not open WLF file: vsim.wlf
#           Using alternate file: ./wlft5102yf
# ** Warning: (vsim-3017) ../test/connected_tb.v(39): [TFMPC] - Too few port connections. Expected 14, found 13.
#         Region: /connected_tb/conn
# ** Warning: (vsim-3722) ../test/connected_tb.v(39): [TFMPC] - Missing connection for port 'out1_size'.
# run -all 
# x:    91, y:    31, label:   0
# size:     x
# w:   0, nw:   0, n:   0, ne:   0
# size_max1:     0, size_max2:     0, size_max3:     x
# label_max1:   0, label_max2:   0, label_max3:   x
# new_label:   0
# x:    92, y:    31, label:   1
# size:     x
# w:   1, nw:   0, n:   0, ne:   0
# x:    93, y:    31, label:   1
# size:     1
# w:   1, nw:   0, n:   0, ne:   0
# x:    94, y:    31, label:   1
# size:     2
# w:   1, nw:   0, n:   0, ne:   0
# x:    95, y:    31, label:   1
# size:     3
# w:   1, nw:   0, n:   0, ne:   0
# x:    96, y:    31, label:   1
# size:     4
# w:   1, nw:   0, n:   0, ne:   0
# x:    87, y:    32, label:   1
# size:     6
# w:   0, nw:   0, n:   0, ne:   0
# size_max1:     0, size_max2:     0, size_max3:     x
# label_max1:   0, label_max2:   0, label_max3:   x
# new_label:   1
# x:    88, y:    32, label:   2
# size:     6
# w:   2, nw:   0, n:   0, ne:   0
# x:    89, y:    32, label:   2
# size:     1
# w:   2, nw:   0, n:   0, ne:   0
# x:    90, y:    32, label:   2
# size:     2
# w:   2, nw:   0, n:   0, ne:   1
# connected_label:   1
# x:    91, y:    32, label:   2
# size:     3
# w:   2, nw:   0, n:   1, ne:   1
# connected_label:   1
# x:    92, y:    32, label:   2
# size:    10
# w:   2, nw:   1, n:   1, ne:   1
# connected_label:   1
# x:    93, y:    32, label:   2
# size:    11
# w:   2, nw:   1, n:   1, ne:   1
# connected_label:   1
# x:    94, y:    32, label:   2
# size:    12
# w:   2, nw:   1, n:   1, ne:   1
# connected_label:   1
# x:    95, y:    32, label:   2
# size:    13
# w:   2, nw:   1, n:   1, ne:   1
# connected_label:   1
# x:    96, y:    32, label:   2
# size:    14
# w:   2, nw:   1, n:   1, ne:   0
# x:    84, y:    33, label:   2
# size:    16
# w:   0, nw:   0, n:   0, ne:   0
# size_max1:     6, size_max2:     0, size_max3:     0
# label_max1:   1, label_max2:   0, label_max3:   0
# new_label:   2
# x:    85, y:    33, label:   3
# size:    16
# w:   3, nw:   0, n:   0, ne:   0
# x:    86, y:    33, label:   3
# size:     1
# w:   3, nw:   0, n:   0, ne:   2
# connected_label:   2
# x:    87, y:    33, label:   3
# size:     2
# w:   3, nw:   0, n:   2, ne:   2
# connected_label:   2
# x:    88, y:    33, label:   3
# size:    19
# w:   3, nw:   2, n:   2, ne:   2
# connected_label:   2
# x:    89, y:    33, label:   3
# size:    20
# w:   3, nw:   2, n:   2, ne:   2
# connected_label:   2
# x:    90, y:    33, label:   3
# size:    21
# w:   3, nw:   2, n:   2, ne:   2
# connected_label:   2
# x:    91, y:    33, label:   3
# size:    22
# w:   3, nw:   2, n:   2, ne:   2
# connected_label:   2
# x:    92, y:    33, label:   3
# size:    23
# w:   3, nw:   2, n:   2, ne:   2
# connected_label:   2
# x:    93, y:    33, label:   3
# size:    24
# w:   3, nw:   2, n:   2, ne:   2
# connected_label:   2
# x:    94, y:    33, label:   3
# size:    25
# w:   3, nw:   2, n:   2, ne:   2
# connected_label:   2
# x:    95, y:    33, label:   3
# size:    26
# w:   3, nw:   2, n:   2, ne:   2
# connected_label:   2
# x:    96, y:    33, label:   3
# size:    27
# w:   3, nw:   2, n:   2, ne:   0
# x:    82, y:    34, label:   3
# size:    29
# w:   0, nw:   0, n:   0, ne:   0
# size_max1:    16, size_max2:     6, size_max3:     0
# label_max1:   2, label_max2:   1, label_max3:   0
# new_label:   3
# x:    83, y:    34, label:   4
# size:    29
# w:   4, nw:   0, n:   0, ne:   3
# connected_label:   3
# x:    84, y:    34, label:   4
# size:     1
# w:   4, nw:   0, n:   3, ne:   3
# connected_label:   3
# x:    85, y:    34, label:   4
# size:    31
# w:   4, nw:   3, n:   3, ne:   3
# connected_label:   3
# x:    86, y:    34, label:   4
# size:    32
# w:   4, nw:   3, n:   3, ne:   3
# connected_label:   3
# x:    87, y:    34, label:   4
# size:    33
# w:   4, nw:   3, n:   3, ne:   3
# connected_label:   3
# x:    88, y:    34, label:   4
# size:    34
# w:   4, nw:   3, n:   3, ne:   3
# connected_label:   3
# x:    89, y:    34, label:   4
# size:    35
# w:   4, nw:   3, n:   3, ne:   3
# connected_label:   3
# x:    90, y:    34, label:   4
# size:    36
# w:   4, nw:   3, n:   3, ne:   3
# connected_label:   3
# x:    91, y:    34, label:   4
# size:    37
# w:   4, nw:   3, n:   3, ne:   3
# connected_label:   3
# x:    92, y:    34, label:   4
# size:    38
# w:   4, nw:   3, n:   3, ne:   3
# connected_label:   3
# x:    93, y:    34, label:   4
# size:    39
# w:   4, nw:   3, n:   3, ne:   3
# connected_label:   3
# x:    94, y:    34, label:   4
# size:    40
# w:   4, nw:   3, n:   3, ne:   3
# connected_label:   3
# x:    95, y:    34, label:   4
# size:    41
# w:   4, nw:   3, n:   3, ne:   3
# connected_label:   3
# x:    96, y:    34, label:   4
# size:    42
# w:   4, nw:   3, n:   3, ne:   0
# x:    97, y:    34, label:   4
# size:    43
# w:   4, nw:   3, n:   0, ne:   0
# x:    82, y:    35, label:   4
# size:    45
# w:   0, nw:   0, n:   4, ne:   4
# x:    83, y:    35, label:   4
# size:    45
# w:   4, nw:   4, n:   4, ne:   4
# x:    84, y:    35, label:   4
# size:    46
# w:   4, nw:   4, n:   4, ne:   4
# x:    85, y:    35, label:   4
# size:    47
# w:   4, nw:   4, n:   4, ne:   4
# x:    86, y:    35, label:   4
# size:    48
# w:   4, nw:   4, n:   4, ne:   4
# x:    87, y:    35, label:   4
# size:    49
# w:   4, nw:   4, n:   4, ne:   4
# x:    88, y:    35, label:   4
# size:    50
# w:   4, nw:   4, n:   4, ne:   4
# x:    89, y:    35, label:   4
# size:    51
# w:   4, nw:   4, n:   4, ne:   4
# x:    90, y:    35, label:   4
# size:    52
# w:   4, nw:   4, n:   4, ne:   4
# x:    91, y:    35, label:   4
# size:    53
# w:   4, nw:   4, n:   4, ne:   4
# x:    92, y:    35, label:   4
# size:    54
# w:   4, nw:   4, n:   4, ne:   4
# x:    93, y:    35, label:   4
# size:    55
# w:   4, nw:   4, n:   4, ne:   4
# x:    94, y:    35, label:   4
# size:    56
# w:   4, nw:   4, n:   4, ne:   4
# x:    95, y:    35, label:   4
# size:    57
# w:   4, nw:   4, n:   4, ne:   4
# x:    96, y:    35, label:   4
# size:    58
# w:   4, nw:   4, n:   4, ne:   4
# x:    97, y:    35, label:   4
# size:    59
# w:   4, nw:   4, n:   4, ne:   0
# x:    82, y:    36, label:   4
# size:    61
# w:   0, nw:   0, n:   4, ne:   4
# x:    83, y:    36, label:   4
# size:    61
# w:   4, nw:   4, n:   4, ne:   4
# x:    84, y:    36, label:   4
# size:    62
# w:   4, nw:   4, n:   4, ne:   4
# x:    85, y:    36, label:   4
# size:    63
# w:   4, nw:   4, n:   4, ne:   4
# x:    86, y:    36, label:   4
# size:    64
# w:   4, nw:   4, n:   4, ne:   4
# x:    87, y:    36, label:   4
# size:    65
# w:   4, nw:   4, n:   4, ne:   4
# x:    88, y:    36, label:   4
# size:    66
# w:   4, nw:   4, n:   4, ne:   4
# x:    89, y:    36, label:   4
# size:    67
# w:   4, nw:   4, n:   4, ne:   4
# x:    90, y:    36, label:   4
# size:    68
# w:   4, nw:   4, n:   4, ne:   4
# x:    91, y:    36, label:   4
# size:    69
# w:   4, nw:   4, n:   4, ne:   4
# x:    92, y:    36, label:   4
# size:    70
# w:   4, nw:   4, n:   4, ne:   4
# x:    93, y:    36, label:   4
# size:    71
# w:   4, nw:   4, n:   4, ne:   4
# x:    94, y:    36, label:   4
# size:    72
# w:   4, nw:   4, n:   4, ne:   4
# x:    95, y:    36, label:   4
# size:    73
# w:   4, nw:   4, n:   4, ne:   4
# x:    96, y:    36, label:   4
# size:    74
# w:   4, nw:   4, n:   4, ne:   4
# x:    97, y:    36, label:   4
# size:    75
# w:   4, nw:   4, n:   4, ne:   0
# x:    82, y:    37, label:   4
# size:    77
# w:   0, nw:   0, n:   4, ne:   4
# x:    83, y:    37, label:   4
# size:    77
# w:   4, nw:   4, n:   4, ne:   4
# x:    84, y:    37, label:   4
# size:    78
# w:   4, nw:   4, n:   4, ne:   4
# x:    85, y:    37, label:   4
# size:    79
# w:   4, nw:   4, n:   4, ne:   4
# x:    86, y:    37, label:   4
# size:    80
# w:   4, nw:   4, n:   4, ne:   4
# x:    87, y:    37, label:   4
# size:    81
# w:   4, nw:   4, n:   4, ne:   4
# x:    88, y:    37, label:   4
# size:    82
# w:   4, nw:   4, n:   4, ne:   4
# x:    89, y:    37, label:   4
# size:    83
# w:   4, nw:   4, n:   4, ne:   4
# x:    90, y:    37, label:   4
# size:    84
# w:   4, nw:   4, n:   4, ne:   4
# x:    91, y:    37, label:   4
# size:    85
# w:   4, nw:   4, n:   4, ne:   4
# x:    92, y:    37, label:   4
# size:    86
# w:   4, nw:   4, n:   4, ne:   4
# x:    93, y:    37, label:   4
# size:    87
# w:   4, nw:   4, n:   4, ne:   4
# x:    94, y:    37, label:   4
# size:    88
# w:   4, nw:   4, n:   4, ne:   4
# x:    95, y:    37, label:   4
# size:    89
# w:   4, nw:   4, n:   4, ne:   4
# x:    96, y:    37, label:   4
# size:    90
# w:   4, nw:   4, n:   4, ne:   4
# x:    97, y:    37, label:   4
# size:    91
# w:   4, nw:   4, n:   4, ne:   0
# x:    82, y:    38, label:   4
# size:    93
# w:   0, nw:   0, n:   4, ne:   4
# x:    83, y:    38, label:   4
# size:    93
# w:   4, nw:   4, n:   4, ne:   4
# x:    84, y:    38, label:   4
# size:    94
# w:   4, nw:   4, n:   4, ne:   4
# x:    85, y:    38, label:   4
# size:    95
# w:   4, nw:   4, n:   4, ne:   4
# x:    86, y:    38, label:   4
# size:    96
# w:   4, nw:   4, n:   4, ne:   4
# x:    87, y:    38, label:   4
# size:    97
# w:   4, nw:   4, n:   4, ne:   4
# x:    88, y:    38, label:   4
# size:    98
# w:   4, nw:   4, n:   4, ne:   4
# x:    89, y:    38, label:   4
# size:    99
# w:   4, nw:   4, n:   4, ne:   4
# x:    90, y:    38, label:   4
# size:   100
# w:   4, nw:   4, n:   4, ne:   4
# x:    91, y:    38, label:   4
# size:   101
# w:   4, nw:   4, n:   4, ne:   4
# x:    92, y:    38, label:   4
# size:   102
# w:   4, nw:   4, n:   4, ne:   4
# x:    93, y:    38, label:   4
# size:   103
# w:   4, nw:   4, n:   4, ne:   4
# x:    94, y:    38, label:   4
# size:   104
# w:   4, nw:   4, n:   4, ne:   4
# x:    95, y:    38, label:   4
# size:   105
# w:   4, nw:   4, n:   4, ne:   4
# x:    96, y:    38, label:   4
# size:   106
# w:   4, nw:   4, n:   4, ne:   4
# x:    97, y:    38, label:   4
# size:   107
# w:   4, nw:   4, n:   4, ne:   0
# x:    98, y:    38, label:   4
# size:   108
# w:   4, nw:   4, n:   0, ne:   0
# x:    83, y:    39, label:   4
# size:   110
# w:   0, nw:   4, n:   4, ne:   4
# x:    84, y:    39, label:   4
# size:   110
# w:   4, nw:   4, n:   4, ne:   4
# x:    85, y:    39, label:   4
# size:   111
# w:   4, nw:   4, n:   4, ne:   4
# x:    86, y:    39, label:   4
# size:   112
# w:   4, nw:   4, n:   4, ne:   4
# x:    87, y:    39, label:   4
# size:   113
# w:   4, nw:   4, n:   4, ne:   4
# x:    88, y:    39, label:   4
# size:   114
# w:   4, nw:   4, n:   4, ne:   4
# x:    89, y:    39, label:   4
# size:   115
# w:   4, nw:   4, n:   4, ne:   4
# x:    90, y:    39, label:   4
# size:   116
# w:   4, nw:   4, n:   4, ne:   4
# x:    91, y:    39, label:   4
# size:   117
# w:   4, nw:   4, n:   4, ne:   4
# x:    92, y:    39, label:   4
# size:   118
# w:   4, nw:   4, n:   4, ne:   4
# x:    93, y:    39, label:   4
# size:   119
# w:   4, nw:   4, n:   4, ne:   4
# x:    94, y:    39, label:   4
# size:   120
# w:   4, nw:   4, n:   4, ne:   4
# x:    95, y:    39, label:   4
# size:   121
# w:   4, nw:   4, n:   4, ne:   4
# x:    96, y:    39, label:   4
# size:   122
# w:   4, nw:   4, n:   4, ne:   4
# x:    97, y:    39, label:   4
# size:   123
# w:   4, nw:   4, n:   4, ne:   4
# x:    98, y:    39, label:   4
# size:   124
# w:   4, nw:   4, n:   4, ne:   0
# x:    83, y:    40, label:   4
# size:   126
# w:   0, nw:   0, n:   4, ne:   4
# x:    84, y:    40, label:   4
# size:   126
# w:   4, nw:   4, n:   4, ne:   4
# x:    85, y:    40, label:   4
# size:   127
# w:   4, nw:   4, n:   4, ne:   4
# x:    86, y:    40, label:   4
# size:   128
# w:   4, nw:   4, n:   4, ne:   4
# x:    87, y:    40, label:   4
# size:   129
# w:   4, nw:   4, n:   4, ne:   4
# x:    88, y:    40, label:   4
# size:   130
# w:   4, nw:   4, n:   4, ne:   4
# x:    89, y:    40, label:   4
# size:   131
# w:   4, nw:   4, n:   4, ne:   4
# x:    90, y:    40, label:   4
# size:   132
# w:   4, nw:   4, n:   4, ne:   4
# x:    91, y:    40, label:   4
# size:   133
# w:   4, nw:   4, n:   4, ne:   4
# x:    92, y:    40, label:   4
# size:   134
# w:   4, nw:   4, n:   4, ne:   4
# x:    93, y:    40, label:   4
# size:   135
# w:   4, nw:   4, n:   4, ne:   4
# x:    94, y:    40, label:   4
# size:   136
# w:   4, nw:   4, n:   4, ne:   4
# x:    95, y:    40, label:   4
# size:   137
# w:   4, nw:   4, n:   4, ne:   4
# x:    96, y:    40, label:   4
# size:   138
# w:   4, nw:   4, n:   4, ne:   4
# x:    97, y:    40, label:   4
# size:   139
# w:   4, nw:   4, n:   4, ne:   4
# x:    98, y:    40, label:   4
# size:   140
# w:   4, nw:   4, n:   4, ne:   0
# x:    83, y:    41, label:   4
# size:   142
# w:   0, nw:   0, n:   4, ne:   4
# x:    84, y:    41, label:   4
# size:   142
# w:   4, nw:   4, n:   4, ne:   4
# x:    85, y:    41, label:   4
# size:   143
# w:   4, nw:   4, n:   4, ne:   4
# x:    86, y:    41, label:   4
# size:   144
# w:   4, nw:   4, n:   4, ne:   4
# x:    87, y:    41, label:   4
# size:   145
# w:   4, nw:   4, n:   4, ne:   4
# x:    88, y:    41, label:   4
# size:   146
# w:   4, nw:   4, n:   4, ne:   4
# x:    89, y:    41, label:   4
# size:   147
# w:   4, nw:   4, n:   4, ne:   4
# x:    90, y:    41, label:   4
# size:   148
# w:   4, nw:   4, n:   4, ne:   4
# x:    91, y:    41, label:   4
# size:   149
# w:   4, nw:   4, n:   4, ne:   4
# x:    92, y:    41, label:   4
# size:   150
# w:   4, nw:   4, n:   4, ne:   4
# x:    93, y:    41, label:   4
# size:   151
# w:   4, nw:   4, n:   4, ne:   4
# x:    94, y:    41, label:   4
# size:   152
# w:   4, nw:   4, n:   4, ne:   4
# x:    95, y:    41, label:   4
# size:   153
# w:   4, nw:   4, n:   4, ne:   4
# x:    96, y:    41, label:   4
# size:   154
# w:   4, nw:   4, n:   4, ne:   4
# x:    97, y:    41, label:   4
# size:   155
# w:   4, nw:   4, n:   4, ne:   4
# x:    98, y:    41, label:   4
# size:   156
# w:   4, nw:   4, n:   4, ne:   0
# x:    99, y:    41, label:   4
# size:   157
# w:   4, nw:   4, n:   0, ne:   0
# x:    83, y:    42, label:   4
# size:   159
# w:   0, nw:   0, n:   4, ne:   4
# x:    84, y:    42, label:   4
# size:   159
# w:   4, nw:   4, n:   4, ne:   4
# x:    85, y:    42, label:   4
# size:   160
# w:   4, nw:   4, n:   4, ne:   4
# x:    86, y:    42, label:   4
# size:   161
# w:   4, nw:   4, n:   4, ne:   4
# x:    87, y:    42, label:   4
# size:   162
# w:   4, nw:   4, n:   4, ne:   4
# x:    88, y:    42, label:   4
# size:   163
# w:   4, nw:   4, n:   4, ne:   4
# x:    89, y:    42, label:   4
# size:   164
# w:   4, nw:   4, n:   4, ne:   4
# x:    90, y:    42, label:   4
# size:   165
# w:   4, nw:   4, n:   4, ne:   4
# x:    91, y:    42, label:   4
# size:   166
# w:   4, nw:   4, n:   4, ne:   4
# x:    92, y:    42, label:   4
# size:   167
# w:   4, nw:   4, n:   4, ne:   4
# x:    93, y:    42, label:   4
# size:   168
# w:   4, nw:   4, n:   4, ne:   4
# x:    94, y:    42, label:   4
# size:   169
# w:   4, nw:   4, n:   4, ne:   4
# x:    95, y:    42, label:   4
# size:   170
# w:   4, nw:   4, n:   4, ne:   4
# x:    96, y:    42, label:   4
# size:   171
# w:   4, nw:   4, n:   4, ne:   4
# x:    97, y:    42, label:   4
# size:   172
# w:   4, nw:   4, n:   4, ne:   4
# x:    98, y:    42, label:   4
# size:   173
# w:   4, nw:   4, n:   4, ne:   4
# x:    99, y:    42, label:   4
# size:   174
# w:   4, nw:   4, n:   4, ne:   0
# x:    84, y:    43, label:   4
# size:   176
# w:   0, nw:   4, n:   4, ne:   4
# x:    85, y:    43, label:   4
# size:   176
# w:   4, nw:   4, n:   4, ne:   4
# x:    86, y:    43, label:   4
# size:   177
# w:   4, nw:   4, n:   4, ne:   4
# x:    87, y:    43, label:   4
# size:   178
# w:   4, nw:   4, n:   4, ne:   4
# x:    88, y:    43, label:   4
# size:   179
# w:   4, nw:   4, n:   4, ne:   4
# x:    89, y:    43, label:   4
# size:   180
# w:   4, nw:   4, n:   4, ne:   4
# x:    90, y:    43, label:   4
# size:   181
# w:   4, nw:   4, n:   4, ne:   4
# x:    91, y:    43, label:   4
# size:   182
# w:   4, nw:   4, n:   4, ne:   4
# x:    92, y:    43, label:   4
# size:   183
# w:   4, nw:   4, n:   4, ne:   4
# x:    93, y:    43, label:   4
# size:   184
# w:   4, nw:   4, n:   4, ne:   4
# x:    94, y:    43, label:   4
# size:   185
# w:   4, nw:   4, n:   4, ne:   4
# x:    95, y:    43, label:   4
# size:   186
# w:   4, nw:   4, n:   4, ne:   4
# x:    96, y:    43, label:   4
# size:   187
# w:   4, nw:   4, n:   4, ne:   4
# x:    97, y:    43, label:   4
# size:   188
# w:   4, nw:   4, n:   4, ne:   4
# x:    98, y:    43, label:   4
# size:   189
# w:   4, nw:   4, n:   4, ne:   4
# x:    99, y:    43, label:   4
# size:   190
# w:   4, nw:   4, n:   4, ne:   0
# x:    84, y:    44, label:   4
# size:   192
# w:   0, nw:   0, n:   4, ne:   4
# x:    85, y:    44, label:   4
# size:   192
# w:   4, nw:   4, n:   4, ne:   4
# x:    86, y:    44, label:   4
# size:   193
# w:   4, nw:   4, n:   4, ne:   4
# x:    87, y:    44, label:   4
# size:   194
# w:   4, nw:   4, n:   4, ne:   4
# x:    88, y:    44, label:   4
# size:   195
# w:   4, nw:   4, n:   4, ne:   4
# x:    89, y:    44, label:   4
# size:   196
# w:   4, nw:   4, n:   4, ne:   4
# x:    90, y:    44, label:   4
# size:   197
# w:   4, nw:   4, n:   4, ne:   4
# x:    91, y:    44, label:   4
# size:   198
# w:   4, nw:   4, n:   4, ne:   4
# x:    92, y:    44, label:   4
# size:   199
# w:   4, nw:   4, n:   4, ne:   4
# x:    93, y:    44, label:   4
# size:   200
# w:   4, nw:   4, n:   4, ne:   4
# x:    94, y:    44, label:   4
# size:   201
# w:   4, nw:   4, n:   4, ne:   4
# x:    95, y:    44, label:   4
# size:   202
# w:   4, nw:   4, n:   4, ne:   4
# x:    96, y:    44, label:   4
# size:   203
# w:   4, nw:   4, n:   4, ne:   4
# x:    97, y:    44, label:   4
# size:   204
# w:   4, nw:   4, n:   4, ne:   4
# x:    98, y:    44, label:   4
# size:   205
# w:   4, nw:   4, n:   4, ne:   4
# x:    99, y:    44, label:   4
# size:   206
# w:   4, nw:   4, n:   4, ne:   0
# x:    84, y:    45, label:   4
# size:   208
# w:   0, nw:   0, n:   4, ne:   4
# x:    85, y:    45, label:   4
# size:   208
# w:   4, nw:   4, n:   4, ne:   4
# x:    86, y:    45, label:   4
# size:   209
# w:   4, nw:   4, n:   4, ne:   4
# x:    87, y:    45, label:   4
# size:   210
# w:   4, nw:   4, n:   4, ne:   4
# x:    88, y:    45, label:   4
# size:   211
# w:   4, nw:   4, n:   4, ne:   4
# x:    89, y:    45, label:   4
# size:   212
# w:   4, nw:   4, n:   4, ne:   4
# x:    90, y:    45, label:   4
# size:   213
# w:   4, nw:   4, n:   4, ne:   4
# x:    91, y:    45, label:   4
# size:   214
# w:   4, nw:   4, n:   4, ne:   4
# x:    92, y:    45, label:   4
# size:   215
# w:   4, nw:   4, n:   4, ne:   4
# x:    93, y:    45, label:   4
# size:   216
# w:   4, nw:   4, n:   4, ne:   4
# x:    94, y:    45, label:   4
# size:   217
# w:   4, nw:   4, n:   4, ne:   4
# x:    95, y:    45, label:   4
# size:   218
# w:   4, nw:   4, n:   4, ne:   4
# x:    96, y:    45, label:   4
# size:   219
# w:   4, nw:   4, n:   4, ne:   4
# x:    97, y:    45, label:   4
# size:   220
# w:   4, nw:   4, n:   4, ne:   4
# x:    98, y:    45, label:   4
# size:   221
# w:   4, nw:   4, n:   4, ne:   4
# x:    99, y:    45, label:   4
# size:   222
# w:   4, nw:   4, n:   4, ne:   0
# x:    85, y:    46, label:   4
# size:   224
# w:   0, nw:   4, n:   4, ne:   4
# x:    86, y:    46, label:   4
# size:   224
# w:   4, nw:   4, n:   4, ne:   4
# x:    87, y:    46, label:   4
# size:   225
# w:   4, nw:   4, n:   4, ne:   4
# x:    88, y:    46, label:   4
# size:   226
# w:   4, nw:   4, n:   4, ne:   4
# x:    89, y:    46, label:   4
# size:   227
# w:   4, nw:   4, n:   4, ne:   4
# x:    90, y:    46, label:   4
# size:   228
# w:   4, nw:   4, n:   4, ne:   4
# x:    91, y:    46, label:   4
# size:   229
# w:   4, nw:   4, n:   4, ne:   4
# x:    92, y:    46, label:   4
# size:   230
# w:   4, nw:   4, n:   4, ne:   4
# x:    93, y:    46, label:   4
# size:   231
# w:   4, nw:   4, n:   4, ne:   4
# x:    94, y:    46, label:   4
# size:   232
# w:   4, nw:   4, n:   4, ne:   4
# x:    95, y:    46, label:   4
# size:   233
# w:   4, nw:   4, n:   4, ne:   4
# x:    85, y:    47, label:   4
# size:   235
# w:   0, nw:   0, n:   4, ne:   4
# x:    86, y:    47, label:   4
# size:   235
# w:   4, nw:   4, n:   4, ne:   4
# x:    87, y:    47, label:   4
# size:   236
# w:   4, nw:   4, n:   4, ne:   4
# x:    88, y:    47, label:   4
# size:   237
# w:   4, nw:   4, n:   4, ne:   4
# x:    89, y:    47, label:   4
# size:   238
# w:   4, nw:   4, n:   4, ne:   4
# x:    90, y:    47, label:   4
# size:   239
# w:   4, nw:   4, n:   4, ne:   4
# x:    91, y:    47, label:   4
# size:   240
# w:   4, nw:   4, n:   4, ne:   4
# x:    92, y:    47, label:   4
# size:   241
# w:   4, nw:   4, n:   4, ne:   4
# x:    85, y:    48, label:   4
# size:   243
# w:   0, nw:   0, n:   4, ne:   4
# x:    86, y:    48, label:   4
# size:   243
# w:   4, nw:   4, n:   4, ne:   4
# x:    87, y:    48, label:   4
# size:   244
# w:   4, nw:   4, n:   4, ne:   4
# x:    88, y:    48, label:   4
# size:   245
# w:   4, nw:   4, n:   4, ne:   4
# x:    57, y:    54, label:   4
# size:   247
# w:   0, nw:   0, n:   0, ne:   0
# size_max1:    29, size_max2:    16, size_max3:     6
# label_max1:   3, label_max2:   2, label_max3:   1
# new_label:   4
# x:    58, y:    54, label:   5
# size:   247
# w:   5, nw:   0, n:   0, ne:   0
# x:    59, y:    54, label:   5
# size:     1
# w:   5, nw:   0, n:   0, ne:   0
# x:    57, y:    55, label:   5
# size:     3
# w:   0, nw:   0, n:   5, ne:   5
# x:    58, y:    55, label:   5
# size:     3
# w:   5, nw:   5, n:   5, ne:   5
# x:    59, y:    55, label:   5
# size:     4
# w:   5, nw:   5, n:   5, ne:   0
# x:    57, y:    56, label:   5
# size:     6
# w:   0, nw:   0, n:   5, ne:   5
# x:    58, y:    56, label:   5
# size:     6
# w:   5, nw:   5, n:   5, ne:   5
# x:    59, y:    56, label:   5
# size:     7
# w:   5, nw:   5, n:   5, ne:   0
# x:    88, y:    89, label:   5
# size:     9
# w:   0, nw:   0, n:   0, ne:   0
# size_max1:   247, size_max2:    29, size_max3:    16
# label_max1:   4, label_max2:   3, label_max3:   2
# new_label:   5
# x:    89, y:    89, label:   6
# size:     9
# w:   6, nw:   0, n:   0, ne:   0
# x:    90, y:    89, label:   6
# size:     1
# w:   6, nw:   0, n:   0, ne:   0
# x:    88, y:    90, label:   6
# size:     3
# w:   0, nw:   0, n:   6, ne:   6
# x:    89, y:    90, label:   6
# size:     3
# w:   6, nw:   6, n:   6, ne:   6
# x:    90, y:    90, label:   6
# size:     4
# w:   6, nw:   6, n:   6, ne:   0
# x:    91, y:    90, label:   6
# size:     5
# w:   6, nw:   6, n:   0, ne:   0
# x:    92, y:    90, label:   6
# size:     6
# w:   6, nw:   0, n:   0, ne:   0
# x:    88, y:    91, label:   6
# size:     8
# w:   0, nw:   0, n:   6, ne:   6
# x:    89, y:    91, label:   6
# size:     8
# w:   6, nw:   6, n:   6, ne:   6
# x:    90, y:    91, label:   6
# size:     9
# w:   6, nw:   6, n:   6, ne:   6
# x:    91, y:    91, label:   6
# size:    10
# w:   6, nw:   6, n:   6, ne:   6
# x:    92, y:    91, label:   6
# size:    11
# w:   6, nw:   6, n:   6, ne:   0
# x:    93, y:    91, label:   6
# size:    12
# w:   6, nw:   6, n:   0, ne:   0
# x:    88, y:    92, label:   6
# size:    14
# w:   0, nw:   0, n:   6, ne:   6
# x:    89, y:    92, label:   6
# size:    14
# w:   6, nw:   6, n:   6, ne:   6
# x:    90, y:    92, label:   6
# size:    15
# w:   6, nw:   6, n:   6, ne:   6
# x:    91, y:    92, label:   6
# size:    16
# w:   6, nw:   6, n:   6, ne:   6
# x:    92, y:    92, label:   6
# size:    17
# w:   6, nw:   6, n:   6, ne:   6
# x:    93, y:    92, label:   6
# size:    18
# w:   6, nw:   6, n:   6, ne:   0
# x:    94, y:    92, label:   6
# size:    19
# w:   6, nw:   6, n:   0, ne:   0
# x:    88, y:    93, label:   6
# size:    21
# w:   0, nw:   0, n:   6, ne:   6
# x:    89, y:    93, label:   6
# size:    21
# w:   6, nw:   6, n:   6, ne:   6
# x:    90, y:    93, label:   6
# size:    22
# w:   6, nw:   6, n:   6, ne:   6
# x:    91, y:    93, label:   6
# size:    23
# w:   6, nw:   6, n:   6, ne:   6
# x:    92, y:    93, label:   6
# size:    24
# w:   6, nw:   6, n:   6, ne:   6
# x:    93, y:    93, label:   6
# size:    25
# w:   6, nw:   6, n:   6, ne:   6
# x:    94, y:    93, label:   6
# size:    26
# w:   6, nw:   6, n:   6, ne:   0
# x:    95, y:    93, label:   6
# size:    27
# w:   6, nw:   6, n:   0, ne:   0
# x:    88, y:    94, label:   6
# size:    29
# w:   0, nw:   0, n:   6, ne:   6
# x:    89, y:    94, label:   6
# size:    29
# w:   6, nw:   6, n:   6, ne:   6
# x:    90, y:    94, label:   6
# size:    30
# w:   6, nw:   6, n:   6, ne:   6
# x:    91, y:    94, label:   6
# size:    31
# w:   6, nw:   6, n:   6, ne:   6
# x:    92, y:    94, label:   6
# size:    32
# w:   6, nw:   6, n:   6, ne:   6
# x:    93, y:    94, label:   6
# size:    33
# w:   6, nw:   6, n:   6, ne:   6
# x:    94, y:    94, label:   6
# size:    34
# w:   6, nw:   6, n:   6, ne:   6
# x:    95, y:    94, label:   6
# size:    35
# w:   6, nw:   6, n:   6, ne:   0
# x:    96, y:    94, label:   6
# size:    36
# w:   6, nw:   6, n:   0, ne:   0
# x:    97, y:    94, label:   6
# size:    37
# w:   6, nw:   0, n:   0, ne:   0
# x:    88, y:    95, label:   6
# size:    39
# w:   0, nw:   0, n:   6, ne:   6
# x:    89, y:    95, label:   6
# size:    39
# w:   6, nw:   6, n:   6, ne:   6
# x:    90, y:    95, label:   6
# size:    40
# w:   6, nw:   6, n:   6, ne:   6
# x:    91, y:    95, label:   6
# size:    41
# w:   6, nw:   6, n:   6, ne:   6
# x:    92, y:    95, label:   6
# size:    42
# w:   6, nw:   6, n:   6, ne:   6
# x:    93, y:    95, label:   6
# size:    43
# w:   6, nw:   6, n:   6, ne:   6
# x:    94, y:    95, label:   6
# size:    44
# w:   6, nw:   6, n:   6, ne:   6
# x:    95, y:    95, label:   6
# size:    45
# w:   6, nw:   6, n:   6, ne:   6
# x:    96, y:    95, label:   6
# size:    46
# w:   6, nw:   6, n:   6, ne:   6
# x:    97, y:    95, label:   6
# size:    47
# w:   6, nw:   6, n:   6, ne:   0
# x:    98, y:    95, label:   6
# size:    48
# w:   6, nw:   6, n:   0, ne:   0
# x:    88, y:    96, label:   6
# size:    50
# w:   0, nw:   0, n:   6, ne:   6
# x:    89, y:    96, label:   6
# size:    50
# w:   6, nw:   6, n:   6, ne:   6
# x:    90, y:    96, label:   6
# size:    51
# w:   6, nw:   6, n:   6, ne:   6
# x:    91, y:    96, label:   6
# size:    52
# w:   6, nw:   6, n:   6, ne:   6
